{
  "trigger": {
    "schedule": {
      "interval": "15m"
    }
  },
  "input": {
    "search": {
      "request": {
        "search_type": "query_then_fetch",
        "indices": [
          "windows-search-logs"
        ],
        "types": [],
        "body": {
          "size": 0,
          "query": {
            "bool": {
              "must": [
                {
                  "range": {
                    "@timestamp": {
                      "gte": "now-15m",
                      "lte": "now"
                    }
                  }
                },
                {
                  "query_string": {
                    "query": "event_id:(4728 OR 4732 OR 4756) AND !event_data.SubjectUserName:*$",
                    "analyze_wildcard": true
                  }
                },
                {
                  "bool": {
                    "should": [
                      {
                        "match_phrase": {
                          "event_data.TargetUserName": "Domain Admins"
                        }
                      },
                      {
                        "match_phrase": {
                          "event_data.TargetUserName": "Administrators"
                        }
                      },
                      {
                        "match_phrase": {
                          "event_data.TargetUserName": "Enterprise Admins"
                        }
                      },
                      {
                        "match_phrase": {
                          "event_data.TargetUserName": "CA Auditors"
                        }
                      },
                      {
                        "match_phrase": {
                          "event_data.TargetUserName": "Exchange Services"
                        }
                      },
                      {
                        "match_phrase": {
                          "event_data.TargetUserName": "Schema Admins"
                        }
                      },
                      {
                        "match_phrase": {
                          "event_data.TargetUserName": "Server Operators"
                        }
                      },
                      {
                        "match_phrase": {
                          "event_data.TargetUserName": "Account Operators"
                        }
                      },
                      {
                        "match_phrase": {
                          "event_data.TargetUserName": "Backup Operators"
                        }
                      }
                    ],
                    "minimum_should_match": 1
                  }
                }
              ]
            }
          },
          "aggs": {
            "tgt_group": {
              "terms": {
                "field": "event_data.TargetUserName",
                "size": 5,
                "order": {
                  "_count": "desc"
                }
              },
              "aggs": {
                "member": {
                  "terms": {
                    "field": "event_data.MemberName",
                    "size": 5
                  },
                  "aggs": {
                    "sub_user": {
                      "terms": {
                        "field": "event_data.SubjectUserName",
                        "size": 5
                      },
                      "aggs": {
                        "domain": {
                          "terms": {
                            "field": "event_data.TargetDomainName",
                            "size": 1
                          }
                        }
                      }
                    }
                  }
                }
              }
            }
          }
        }
      }
    }
  },
  "condition": {
    "compare": {
      "ctx.payload.hits.total": {
        "gt": 0
      }
    }
  },
  "actions": {
    "send_email": {
      "throttle_period_in_millis": 900000,
      "email": {
        "profile": "standard",
        "from": "[CLIENT]@sherlock-alerts.com",
        "to": [
          "<sherlock.alerts@anitian.com>"
        ],
        "subject": "SIEM ALERT: User Added to Administators Group at [CLIENT]",
        "body": {
          "html": "<h2>{{ctx.payload.hits.total}} user(s) added to an administator group.</h2><p><h3>Target Group | Target User | Added By |  Domain</p></h3><p>{{ctx.payload.aggregations.tgt_group.buckets.0.key}} | {{ctx.payload.aggregations.tgt_group.buckets.0.member.buckets.0.key}} |  {{ctx.payload.aggregations.tgt_group.buckets.0.member.buckets.0.sub_user.buckets.0.key}} |  {{ctx.payload.aggregations.tgt_group.buckets.0.member.buckets.0.sub_user.buckets.0.domain.buckets.0.key}} </p>"
        }
      }
    }
  }
}
