{
  "trigger": {
    "schedule": {
      "interval": "15m"
    }
  },
  "input": {
    "search": {
      "request": {
        "search_type": "query_then_fetch",
        "indices": [
          "windows-search-logs"
        ],
        "types": [],
        "body": {
          "size": 0,
          "query": {
            "bool": {
              "must": [
                {
                  "query_string": {
                    "query": "event_id:(8006 OR 8007)",
                    "analyze_wildcard": true
                  }
                },
                {
                  "range": {
                    "@timestamp": {
                      "gte": "now-15m",
                      "lte": "now"
                    }
                  }
                }
              ]
            }
          }
        }
      }
    }
  },
  "condition": {
    "compare": {
      "ctx.payload.hits.total": {
        "gte": 1
      }
    }
  },
  "actions": {
    "send_email": {
      "throttle_period_in_millis": 900000,
      "email": {
        "profile": "standard",
        "from": "[CLIENT]@sherlock-alerts.com",
        "to": [
          "<sherlock.alerts@anitian.com>"
        ],
        "subject": "SIEM ALERT: SRP blocked an application at [CLIENT]",
        "body": {
          "html": "<h2>SRP blocked {{ctx.payload.hits.total}} in the past 15 minutes.</h2><p><body>Next steps:</p><p>Verify the validity of the alert and whether it's expected in the environment.</p><p><a href=\"https://\">SRP Block Search</a></p></body>"
        }
      }
    }
  }
}
