{
  "trigger": {
    "schedule": {  
      "interval": "15m"
    }
  },
  "input": {
    "search": {
      "request": {
        "search_type": "query_then_fetch",
        "indices": [
          "windows-search-logs"
        ],
        "types": [],
        "body": {
          "size": 0,
          "query": {
            "bool": {
              "must": [
                {
                  "query_string": {
                    "query": "event_id:4657",
                    "analyze_wildcard": true
                  }
                },
                {
                  "range": {
                    "@timestamp": {
                      "gte": "now-15m",
                      "lte": "now"
                    }
                  }
                }
              ]
            }
          },
          "aggs": {
            "username": {
              "terms": {
                "field": "event_data.SubjectUserName",
                "size": 1
              },
              "aggs": {
                "keyname": {
                  "terms": {
                    "field": "event_data.ObjectName",
                    "size": 1
                  }
                }
              }
            }
          }
        }
      }
    }
  },
  "condition": {
    "compare": {
      "ctx.payload.hits.total": {
        "gt": 0
      }
    }
  },
  "actions": {
    "send_email": {
      "throttle_period": "1h",
      "email": {
        "profile": "standard",
        "from": "[CLIENT]@sherlock-alerts.com",
        "to": [
          "<sherlock.alerts@anitian.com>"
        ],
        "subject": "SIEM ALERT: Registry Value Modified at [CLIENT]",
        "body": {
          "html": "<h2></h2><p><body>Next steps:</p><p>User: {{ctx.payload.aggregations.username.buckets.0.key}}<br>Key Name: {{ctx.payload.aggregations.username.buckets.0.keyname.buckets.0}}</p>"
        }
      }
    }
  }
}
