{
  "trigger": {
    "schedule": {
      "interval": "15m"
    }
  },
  "input": {
    "search": {
      "request": {
        "search_type": "query_then_fetch",
        "indices": [
          "windows-search-logs"
        ],
        "types": [],
        "body": {
          "size": 0,
          "query": {
            "bool": {
              "must": [
                {
                  "range": {
                    "@timestamp": {
                      "gte": "now-1d",
                      "lte": "now"
                    }
                  }
                },
                {
                  "query_string": {
                    "query": "event_id:19950"
                  }
                }
              ]
            }
          },
          "aggs": {
            "message": {
              "terms": {
                "field": "event_data.param1"
              }
            }
          }
        }
      }
    }
  },
  "condition": {
    "compare": {
      "ctx.payload.hits.total": {
        "gt": 0
      }
    }
  },
  "actions": {
    "send_email": {
      "throttle_period_in_millis": 86400000,
      "email": {
        "profile": "standard",
        "from": "[CLIENT]@sherlock-alerts.com",
        "to": [
          "<sherlock.alerts@anitian.com>"
        ],
        "subject": "SIEM ALERT: User Accounts Inactive for 90 days at [CLIENT]",
        "body": {
          "html": "<p>Inactive User accounts: {{ctx.payload.aggregations.message.buckets.0.key}}<p>"
        }
      }
    }
  }
}
