{
  "trigger": {
    "schedule": {
      "interval": "30m"
    }
  },
  "input": {
    "search": {
      "request": {
        "search_type": "query_then_fetch",
        "indices": [
          "windows-search-logs"
        ],
        "types": [],
        "body": {
          "size": 0,
          "query": {
            "bool": {
              "must": [
                {
                  "query_string": {
                    "query": "event_id:(7022 OR 7023 OR 7024 OR 7026 OR 7031 OR 7032 OR 7034)",
                    "analyze_wildcard": true
                  }
                },
                {
                  "range": {
                    "@timestamp": {
                      "gte": "now-30m",
                      "lte": "now"
                    }
                  }
                }
              ]
            }
          },
            "aggs": {
              "servicename": {
                "terms": {
                  "field": "event_data.param1",
                  "size": 10
                }
              }
            }
        }
      }
    }
  },
  "condition": {
    "compare": {
      "ctx.payload.hits.total": {
        "gte": 30
      }
    }
  },
  "actions": {
    "send_email": {
      "throttle_period_in_millis": 900000,
      "email": {
        "profile": "standard",
        "from": "[CLIENT]@sherlock-alerts.com",
        "to": [
          "<sherlock.alerts@anitian.com>"
        ],
        "subject": "SIEM ALERT: Service Crashes at [CLIENT]",
        "body": {
          "html": "<h2>{{ctx.payload.hits.total}} Service crashes in the last 30 minutes.</h2><body><p>Service Name: {{ctx.payload.aggregations.servicename.buckets.0.key}}</p><p>Verify the crashed service poses no security threat to the client.</body>"
        }
      }
    }
  }
}
