{
  "trigger": {
    "schedule": {
      "interval": "15m"
    }
  },
  "input": {
    "search": {
      "request": {
        "search_type": "query_then_fetch",
        "indices": [
          "vpcflow-search-logs"
        ],
        "types": [],
        "body": {
          "size": 0,
          "query": {
            "bool": {
              "must": [
                {
                  "range": {
                    "@timestamp": {
                      "gte": "now-15m",
                      "lte": "now"
                    }
                  }
                },
                {
                  "query_string": {
                    "query": "_exists_:threatlist_match",
                    "analyze_wildcard": true
                  }
                }
              ],
              "must_not": [
                {
                  "bool": {
                    "should": [
                      {
                        "match_phrase": {
                          "src_port": "80"
                        }
                      },
                      {
                        "match_phrase": {
                          "src_port": "443"
                        }
                      }
                    ],
                    "minimum_should_match": 1
                  }
                }
              ]
            }
          },
          "aggs": {
            "src": {
              "terms": {
                "field": "src_ip",
                "size": 1,
                "order": {
                  "_count": "desc"
                }
              },
              "aggs": {
                "dst": {
                  "terms": {
                    "field": "dst_ip",
                    "size": 1,
                    "order": {
                      "_count": "desc"
                    }
                  },
                  "aggs": {
                    "dst_port": {
                      "terms": {
                        "field": "dst_port",
                        "size": 1
                      },
                      "aggs": {
                        "acct_id": {
                          "terms": {
                            "field": "account-id.keyword",
                            "size": 1
                          }
                        }
                      }
                    }
                  }
                }
              }
            }
          }
        }
      }
    }
  },
  "condition": {
    "compare": {
      "ctx.payload.hits.total": {
        "gt": 0
      }
    }
  },
  "actions": {
    "send_email": {
      "throttle_period_in_millis": 900000,
      "email": {
        "profile": "standard",
        "from": "[CLIENT]@sherlock-alerts.com",
        "to": [
          "<sherlock.alerts@anitian.com>"
        ],
        "subject": "SIEM ALERT: VPCFlow Threatlist Match(es) detected at [CLIENT]",
        "body": {
          "html": "<h2>{{ctx.payload.hits.total}} Threatlist match(es) detected.</h2><p><body>Verify the validity of the alert. Escalate if needed</p><br/><p><h3><p><h3>Source IP | Dst IP | Dst Port | Account ID | Count </p></h3><p>{{ctx.payload.aggregations.src.buckets.0.key}} | {{ctx.payload.aggregations.src.buckets.0.dst.buckets.0.key}} | {{ctx.payload.aggregations.src.buckets.0.dst.buckets.0.dst_port.buckets.0.key}} | {{ctx.payload.aggregations.src.buckets.0.dst.buckets.0.dst_port.buckets.0.acct_id.buckets.0.key}} | {{ctx.payload.aggregations.src.buckets.0.dst.buckets.0.dst_port.buckets.0.acct_id.buckets.0.doc_count}}</p>"
        }
      }
    }
  }
}
