{
  "trigger": {
    "schedule": {
      "interval": "30m"
    }
  },
  "input": {
    "search": {
      "request": {
        "search_type": "query_then_fetch",
        "indices": [
          "vpcflow-search-logs"
        ],
        "types": [],
        "body": {
          "size": 0,
          "query": {
            "bool": {
              "must": [
                {
                  "range": {
                    "@timestamp": {
                      "gte": "now-30m",
                      "lte": "now"
                    }
                  }
                },
                {
                  "query_string": {
                    "query": "tags:\"int_src\" AND !tags:\"int_dst\" AND action:REJECT",
                    "analyze_wildcard": true
                  }
                }
              ]
            }
          },
          "aggs": {
            "src": {
              "terms": {
                "field": "src_ip",
                "size": 1,
                "order": {
                  "_count": "desc"
                }
              },
              "aggs": {
                "dst": {
                  "terms": {
                    "field": "dst_ip",
                    "size": 1,
                    "order": {
                      "_count": "desc"
                    }
                  },
                  "aggs": {
                    "dst_port": {
                      "terms": {
                        "field": "dst_port",
                        "size": 1
                      }
                    }
                  }
                }
              }
            }
          }
        }
      }
    }
  },
  "condition": {
    "compare": {
      "ctx.payload.hits.total": {
        "gt": 0
      }
    }
  },
  "actions": {
    "send_email": {
      "throttle_period_in_millis": 900000,
      "email": {
        "profile": "standard",
        "from": "[CLIENT]@sherlock-alerts.com",
        "to": [
          "<sherlock.alerts@anitian.com>"
        ],
        "subject": "SIEM ALERT: VPCFlow Rejected Outbound Connections Detected at [CLIENT]",
        "body": {
          "html": "<h2>{{ctx.payload.hits.total}} rejected outbound connections detected.</h2><p><body>Verify the validity of the alert. Escalate if needed</p><br/><p><h3><p><h3>Source IP | Dst IP | Dst Port | Count </p></h3><p>{{ctx.payload.aggregations.src.buckets.0.key}} | {{ctx.payload.aggregations.src.buckets.0.dst.buckets.0.key}} | {{ctx.payload.aggregations.src.buckets.0.dst.buckets.0.dst_port.buckets.0.key}} | {{ctx.payload.aggregations.src.buckets.0.dst.buckets.0.dst_port.buckets.0.doc_count}}</p>"
        }
      }
    }
  }
}
