{
  "trigger": {
    "schedule": {
      "interval": "15m"
    }
  },
  "input": {
    "search": {
      "request": {
        "search_type": "query_then_fetch",
        "indices": [
          "endpoint-search-logs"
        ],
        "types": [],
        "body": {
          "size": 0,
          "query": {
            "bool": {
              "must": [
               {
                  "query_string": {
                    "query": "",
                    "analyze_wildcard": true,
                    "all_fields": true
                  }
                },
                {
                  "range": {
                    "@timestamp": {
                      "gte": "now-15m",
                      "lte": "now"
                    }
                  }
                },
                {
                  "range": {
                    "severity": {
                      "gte": "9"
                    }
                  }
                }
              ]
            }
          }
        }
      }
    }
  },
  "condition": {
    "compare": {
      "ctx.payload.hits.total": {
        "gte": 1
      }
    }
  },
  "actions": {
    "send_email": {
      "throttle_period_in_millis": 900000,
      "email": {
        "profile": "standard",
        "from": "[CLIENT]@sherlock-alerts.com",
        "to": [
          "<sherlock.alerts@anitian.com>"
        ],
        "subject": "[CLIENT] Endpoint High Severity Alert",
        "body": {
          "html": "<h2>{{ctx.payload.hits.total}} high severity alert(s) logged. </h2><p><h3>Timestamp (@timestamp) | Device Hostname (dvchost) | Log Category (Category) | Event Details (Event) </p></h3><p>{{ctx.payload.aggs here}}</p><p><a href=\"https://kibana.govad.[CLIENT].com/app/kibana#/dashboard/b1d8f520-dd2e-11e8-b503-919ebf3620ab\">Endpoint Dashboard</a></p><p><h4>Make sure to account for timerange when viewing the data!</h4></p>"
        }
      }
    }
  },
  "metadata": {
    "color": "RED",
    "priority": "HIGH"
  }
}
