{
  "trigger": {
    "schedule": {
      "interval": "15m"
    }
  },
  "input": {
    "search": {
      "request": {
        "search_type": "query_then_fetch",
        "indices": [
          "firewall-search-logs"
        ],
        "types": [],
        "body": {
          "query": {
            "bool": {
              "must": [
                {
                  "range": {
                    "@timestamp": {
                      "gte": "now-15m",
                      "lte": "now"
                    }
                  }
                }
              ]
            }
          }

        }
      }
    }
  },
  "condition": {
    "compare": {
      "ctx.payload.hits.total": {
        "eq": 0
      }
    }
  },
  "actions": {
    "send_email": {
      "throttle_period_in_millis": 3600000,
      "email": {
        "profile": "standard",
        "from": "[CLIENT]@sherlock-alerts.com",
        "to": [
          "<sherlock.alerts@anitian.com>"
        ],
        "subject": "SIEM ALERT: No firewall logs ingested at [CLIENT]",
        "body": {
          "html": "<h2>No Firewall Logs have been ingested in the past 15 min.</h2><p>Verify the validity of the alert with any scheduled downtime.</p></body>"
        }
      }
    }
  }
}
