{
  "trigger": {
    "schedule": {
      "weekly": [
        {
          "on": [
            "MON"
          ],
          "at": [
            "01:00"
          ]
        },
        {
          "on": [
            "MON"
          ],
          "at": [
            "04:00"
          ]
        },
        {
          "on": [
            "MON"
          ],
          "at": [
            "07:00"
          ]
        },
        {
          "on": [
            "MON"
          ],
          "at": [
            "10:00"
          ]
        },
        {
          "on": [
            "MON"
          ],
          "at": [
            "13:00"
          ]
        },
        {
          "on": [
            "TUE"
          ],
          "at": [
            "07:00"
          ]
        },
        {
          "on": [
            "TUE"
          ],
          "at": [
            "10:00"
          ]
        },
        {
          "on": [
            "TUE"
          ],
          "at": [
            "13:00"
          ]
        },
        {
          "on": [
            "WED"
          ],
          "at": [
            "07:00"
          ]
        },
        {
          "on": [
            "WED"
          ],
          "at": [
            "10:00"
          ]
        },
        {
          "on": [
            "WED"
          ],
          "at": [
            "13:00"
          ]
        },
        {
          "on": [
            "THU"
          ],
          "at": [
            "07:00"
          ]
        },
        {
          "on": [
            "THU"
          ],
          "at": [
            "10:00"
          ]
        },
        {
          "on": [
            "THU"
          ],
          "at": [
            "13:00"
          ]
        },
        {
          "on": [
            "FRI"
          ],
          "at": [
            "07:00"
          ]
        },
        {
          "on": [
            "FRI"
          ],
          "at": [
            "10:00"
          ]
        },
        {
          "on": [
            "FRI"
          ],
          "at": [
            "13:00"
          ]
        },
        {
          "on": [
            "SAT"
          ],
          "at": [
            "10:00"
          ]
        },
        {
          "on": [
            "SAT"
          ],
          "at": [
            "13:00"
          ]
        },
        {
          "on": [
            "SAT"
          ],
          "at": [
            "16:00"
          ]
        },
        {
          "on": [
            "SAT"
          ],
          "at": [
            "19:00"
          ]
        },
        {
          "on": [
            "SAT"
          ],
          "at": [
            "22:00"
          ]
        },
        {
          "on": [
            "SUN"
          ],
          "at": [
            "01:00"
          ]
        },
        {
          "on": [
            "SUN"
          ],
          "at": [
            "04:00"
          ]
        },
        {
          "on": [
            "SUN"
          ],
          "at": [
            "07:00"
          ]
        },
        {
          "on": [
            "SUN"
          ],
          "at": [
            "09:00"
          ]
        },
        {
          "on": [
            "SUN"
          ],
          "at": [
            "10:00"
          ]
        },
        {
          "on": [
            "SUN"
          ],
          "at": [
            "13:00"
          ]
        },
        {
          "on": [
            "SUN"
          ],
          "at": [
            "16:00"
          ]
        },
        {
          "on": [
            "SUN"
          ],
          "at": [
            "19:00"
          ]
        },
        {
          "on": [
            "SUN"
          ],
          "at": [
            "22:00"
          ]
        }
      ]
    }
  },
  "input": {
    "search": {
      "request": {
        "search_type": "query_then_fetch",
        "indices": [
          "linux-search-logs"
        ],
        "types": [],
        "body": {
          "size": 0,
          "query": {
            "bool": {
              "must": [
                {
                  "query_string": {
                    "query": "system.auth.ssh.event:Accepted",
                    "analyze_wildcard": true
                  }
                },
                {
                  "range": {
                    "@timestamp": {
                      "gte": "now-3h",
                      "lte": "now"
                    }
                  }
                }
              ]
            }
          },
          "aggs": {
            "user": {
              "terms": {
                "field": "system.auth.user",
                "size": "5",
                "order": {
                  "_count": "desc"
                }
              },
              "aggs": {
                "host": {
                  "terms": {
                    "field": "system.auth.hostname",
                    "size": "5"
                  }
                }
              }
            }
          }
        }
      }
    }
  },
  "condition": {
    "compare": {
      "ctx.payload.hits.total": {
        "gt": 0
      }
    }
  },
  "actions": {
    "send_email": {
      "throttle_period_in_millis": 3600000,
      "email": {
        "profile": "standard",
        "from": "[CLIENT]@sherlock-alerts.com",
        "to": [
          "<sherlock.alerts@anitian.com>"
        ],
        "subject": "SIEM ALERT: Off Hours SSH Logins Detected at [CLIENT]",
        "body": {
          "html": "<h2>{{ctx.payload.hits.total}} off hours SSH logins detected.</h2><body><p>Verify the validity of the alert. Escalate if needed.</p><br/><p><h3>User | Host | Count </p></h3><p>{{ctx.payload.aggregations.user.buckets.0.key}} | {{ctx.payload.aggregations.user.buckets.0.host.buckets.0.key}} |  {{ctx.payload.aggregations.user.buckets.0.host.buckets.0.doc_count}}</p></body>"
        }
      }
    }
  }
}
