{
  "trigger": {
    "schedule": {
      "interval": "15m" 
    }
  },
  "input": {
    "search": {
      "request": {
        "search_type": "query_then_fetch",
        "indices": [
          "linux-search-logs"
        ],
        "types": [],
        "body": {
          "size": 0,
          "query": {
            "bool": {
              "must": [
                {
                  "query_string": {
                    "query": "_exists_:system.auth.useradd.name",
                    "analyze_wildcard": true
                  }
                },
                {
                  "range": {
                    "@timestamp": {
                      "gte": "now-15m",
                      "lte": "now"
                    }
                  }
                }
              ]
            }
          }
        }
      }
    }
  },
  "condition": {
    "compare": {
      "ctx.payload.hits.total": {
        "gte": 1
      }
    }
  },
  "actions": {
    "send_email": {
      "throttle_period_in_millis": 3600000,
      "email": {
        "profile": "standard",
        "from": "[CLIENT]@sherlock-alerts.com",
        "to": [
          "<sherlock.alerts@anitian.com>"
        ],
        "subject": "SIEM ALERT: Local User Added at [CLIENT]",
        "body": {
          "html": "<h2>{{ctx.payload.hits.total}} events in the last 15 minutes. Threshold is 1.</h2><body><p>Verify the validity of the alert. Escalate if needed.</p><p>Saved Search: TODO</p></body>"
        }
      }
    }
  }
}
