{
  "trigger": {
    "schedule": {  
     "interval" : "15m"
    }
  },
  "input": {
    "search": {
      "request": {
        "search_type": "query_then_fetch",
        "indices": [
          "linux-search-logs"
        ],
        "types": [],
        "body": {
          "size": 0,
          "query": {
            "bool": {
              "must": [
                {
                  "query_string": {
                    "query": "system.auth.event:(\"Invalid\" OR \"Failed\")",
                    "analyze_wildcard": true
                  }
                },
                {
                  "range": {
                    "@timestamp": {
                      "gte": "now-15m",
                      "lte": "now"
                    }
                  }
                }
              ]
            }
          }
        }
      }
    }
  },
  "condition": {
    "compare": {
      "ctx.payload.hits.total": {
        "gte": 25
      }
    }
  },
  "actions": {
    "send_email": {
      "throttle_period": "1h",
      "email": {
        "profile": "standard",
        "from": "[CLIENT]@sherlock-alerts.com",
        "to": [
          "<sherlock.alerts@anitian.com>"
        ],
        "subject": "SIEM ALERT: High Number of Failed Logins at [CLIENT]",
        "body": {
          "html": "<h2>{{ctx.payload.hits.total}} login(s) in the last 15 minutes. Threshold is 25.</h2><p><body>Next steps:</p><p>LIST THE ACTIONS THAT SHOULD BE TAKEN WHEN THIS ALERT IS GENERATED HERE</p></body>"
        }
      }
    }
  }
}